{galah} 101 - Beginner’s guide
…
galah_geolocate()

Build a query

library(galah)

galah_call() |>
  galah_identify("Eolophus roseicapilla") |> # galahs
  galah_filter(year >= 2019,
               stateProvince == "New South Wales") |>
  galah_group_by(year, dataResourceName) |>
  atlas_counts()

# A tibble: 21 × 3
   dataResourceName year  count
   <chr>            <chr> <int>
 1 eBird Australia  2022  20858
 2 eBird Australia  2021  18006
 3 eBird Australia  2020  17114
 4 eBird Australia  2019  13561
 5 eBird Australia  2023   4999
 6 NSW BioNet Atlas 2020   2296
 7 NSW BioNet Atlas 2019   2031
 8 NSW BioNet Atlas 2021    788
 9 NSW BioNet Atlas 2022    631
10 NSW BioNet Atlas 2023     31
# ℹ 11 more rows
…
show_all(fields)

# A tibble: 626 × 4
   id                  description                                   type  link 
   <chr>               <chr>                                         <chr> <chr>
 1 _nest_parent_       <NA>                                          fiel… <NA> 
 2 _nest_path_         <NA>                                          fiel… <NA> 
 3 _root_              <NA>                                          fiel… <NA> 
 4 abcdTypeStatus      ABCD field in use by herbaria                 fiel… <NA> 
 5 acceptedNameUsage   http://rs.tdwg.org/dwc/terms/acceptedNameUsa… fiel… <NA> 
 6 acceptedNameUsageID http://rs.tdwg.org/dwc/terms/acceptedNameUsa… fiel… <NA> 
 7 accessRights        <NA>                                          fiel… <NA> 
 8 annotationsDoi      <NA>                                          fiel… <NA> 
 9 annotationsUid      <NA>                                          fiel… <NA> 
10 assertionUserId     User ID of the person who has made an assert… fiel… <NA> 
# ℹ 616 more rows
…
search_all(fields, "dataresource")

# A tibble: 4 × 4
  id                   description                                   type  link 
  <chr>                <chr>                                         <chr> <chr>
1 dataResourceUid      A list (concatenated and separated) of prepa… fiel… <NA> 
2 dataResourceName     The data resource that supplies the record. … fiel… <NA> 
3 raw_dataResourceUid  <NA>                                          fiel… <NA> 
4 raw_dataResourceName <NA>                                          fiel… <NA> 

search_all(fields, "dataResourceName") |>
  show_values()

# A tibble: 875 × 2
   field            category                      
   <chr>            <chr>                         
 1 dataResourceName eBird Australia               
 2 dataResourceName NSW BioNet Atlas              
 3 dataResourceName BirdLife Australia, Birdata   
 4 dataResourceName Victorian Biodiversity Atlas  
 5 dataResourceName iNaturalist Australia         
 6 dataResourceName New South Wales Bird Atlassers
 7 dataResourceName First Bird Atlas              
 8 dataResourceName SA Flora                      
 9 dataResourceName SA Fauna                      
10 dataResourceName Garden Bird Surveys           
# ℹ 865 more rows
…
galah_config(email = "dax.kellie@csiro.au") # registered ALA email

galah_call() |>
  galah_identify("litoria peronii") |>
  galah_filter(year >= 2018,
               cl22 == "New South Wales",
               dataResourceName == "FrogID") |>
  atlas_occurrences()

# A tibble: 27,647 × 8
   decimalLatitude decimalLongitude eventDate           scientificName 
             <dbl>            <dbl> <dttm>              <chr>          
 1           -37.2             149. 2020-12-27 00:00:00 Litoria peronii
 2           -37.1             150. 2020-12-14 00:00:00 Litoria peronii
 3           -37.1             150. 2018-01-06 00:00:00 Litoria peronii
 4           -37.1             150. 2018-01-06 00:00:00 Litoria peronii
 5           -37.1             150. 2020-12-13 00:00:00 Litoria peronii
 6           -37.1             150. 2019-10-30 00:00:00 Litoria peronii
 7           -37.1             150. 2019-10-31 00:00:00 Litoria peronii
 8           -37.1             150. 2019-01-07 00:00:00 Litoria peronii
 9           -37.1             150. 2019-11-25 00:00:00 Litoria peronii
10           -37.1             150. 2018-12-29 00:00:00 Litoria peronii
# ℹ 27,637 more rows
# ℹ 4 more variables: taxonConceptID <chr>, recordID <chr>,
#   dataResourceName <chr>, occurrenceStatus <chr>
…
galah_config(email = "dax.kellie@csiro.au") # registered ALA email

galah_call() |>
  galah_identify("litoria peronii") |>
  galah_filter(year >= 2018,
               cl22 == "New South Wales",
               dataResourceName == "FrogID") |>
  galah_select(scientificName, decimalLongitude, decimalLatitude) |>
  atlas_occurrences()

# A tibble: 27,647 × 3
   scientificName  decimalLongitude decimalLatitude
   <chr>                      <dbl>           <dbl>
 1 Litoria peronii             152.           -32.2
 2 Litoria peronii             151.           -33.7
 3 Litoria peronii             151.           -33.7
 4 Litoria peronii             151.           -33.7
 5 Litoria peronii             151.           -34.1
 6 Litoria peronii             153.           -30.3
 7 Litoria peronii             150.           -33.5
 8 Litoria peronii             151.           -33.3
 9 Litoria peronii             151.           -34.9
10 Litoria peronii             151.           -33.6
# ℹ 27,637 more rows
…
# Download data
frogs <- galah_call() |>
  galah_identify("litoria peronii") |>
  galah_filter(year >= 2018,
               cl22 == "New South Wales",
               dataResourceName == "FrogID") |>
  galah_select(scientificName, decimalLongitude, decimalLatitude) |>
  atlas_occurrences()
frogs

# A tibble: 27,647 × 3
   scientificName  decimalLongitude decimalLatitude
   <chr>                      <dbl>           <dbl>
 1 Litoria peronii             152.           -32.2
 2 Litoria peronii             151.           -33.7
 3 Litoria peronii             151.           -33.7
 4 Litoria peronii             151.           -33.7
 5 Litoria peronii             151.           -34.1
 6 Litoria peronii             153.           -30.3
 7 Litoria peronii             150.           -33.5
 8 Litoria peronii             151.           -33.3
 9 Litoria peronii             151.           -34.9
10 Litoria peronii             151.           -33.6
# ℹ 27,637 more rows
…
